<Grid>
                            <Grid.ColumnDefinitions>
                                <ColumnDefinition Width="*" />
                                <ColumnDefinition Width="5" />
                                <ColumnDefinition Width="*" />
                            </Grid.ColumnDefinitions>
                            <TextBlock FontSize="55" 
                                       HorizontalAlignment="Center" 
                                       VerticalAlignment="Center" 
                                       TextWrapping="Wrap">Left side</TextBlock>
                            <GridSplitter Grid.Column="1" 
                                          Width="5" 
                                          HorizontalAlignment="Stretch" />
                            <TextBlock Grid.Column="2" 
                                       FontSize="55" 
                                       HorizontalAlignment="Center" 
                                       VerticalAlignment="Center" 
                                       TextWrapping="Wrap">Right side</TextBlock>
                        </Grid>