 <TabControl Margin="10" BorderBrush="Gainsboro">
                <TabControl.Resources>
                    <Style TargetType="TabItem">
                        <Setter Property="Template">
                            <Setter.Value>
                                <ControlTemplate TargetType="TabItem">
                                    <Border Name="Border" BorderThickness="1,1,1,0" BorderBrush="Gainsboro" CornerRadius="4,4,0,0" Margin="2,0">
                                        <ContentPresenter x:Name="ContentSite"
                                        VerticalAlignment="Center"
                                        HorizontalAlignment="Center"
                                        ContentSource="Header"
                                        Margin="10,2"/>
                                    </Border>
                                    <ControlTemplate.Triggers>
                                        <Trigger Property="IsSelected" Value="True">
                                            <Setter TargetName="Border" Property="Background" Value="LightSkyBlue" />
                                        </Trigger>
                                        <Trigger Property="IsSelected" Value="False">
                                            <Setter TargetName="Border" Property="Background" Value="GhostWhite" />
                                        </Trigger>
                                    </ControlTemplate.Triggers>
                                </ControlTemplate>
                            </Setter.Value>
                        </Setter>
                    </Style>
                </TabControl.Resources>
                <TabItem Header="General">
                    <Label Content="Содержимое вкладки General" />
                </TabItem>
                <TabItem Header="Security" />
                <TabItem Header="Details" />
            </TabControl>
